20

1 11
13
f 0 1 n
t 0 9 e
t 0 2 e
r 0 9 e
f 0 4 s
r 0 4 n
f 0 2 w
f 0 3 s
h 0 6 w
h 0 8 s
f 0 10 n
t 0 2 w
f 0 0 s
13 3

13 18
4
r 0 2 w
h 6 9 w
r 3 11 e
h 4 2 s
9 4

5 7
12
r 2 3 w
f 0 5 n
t 3 1 s
t 1 4 n
f 4 5 s
r 1 3 n
r 1 3 e
r 3 1 w
t 0 2 n
t 3 6 n
h 4 4 s
f 3 5 n
13 3

12 16
5
r 6 12 n
t 9 14 s
r 2 5 e
r 1 13 s
h 10 0 e
7 4

1 4
10
h 0 2 s
r 0 1 n
h 0 0 e
h 0 1 n
t 0 0 e
r 0 2 n
t 0 0 e
r 0 0 n
h 0 1 e
t 0 2 w
12 5

20 11
1
r 14 8 n
10 4

13 13
9
r 8 12 s
h 12 2 e
h 5 1 s
r 2 5 w
r 6 3 w
t 6 4 n
h 9 5 n
r 11 9 s
t 7 8 n
13 4

4 6
3
r 2 0 e
r 2 4 w
t 3 1 e
13 4

9 6
15
f 8 5 e
f 1 3 n
r 2 4 e
t 3 0 n
h 4 3 n
h 1 5 n
f 7 5 e
f 2 1 n
h 8 3 e
r 1 3 s
h 4 4 s
r 2 2 e
f 1 1 n
t 2 3 w
t 7 4 s
7 3

12 6
2
h 0 0 n
r 1 1 e
13 5

8 18
13
r 3 10 n
t 5 1 e
f 5 3 s
h 7 16 s
r 1 17 w
t 7 11 s
h 5 11 w
f 5 4 s
h 5 12 s
h 4 1 n
h 4 0 s
r 0 1 w
f 1 6 n
8 5

19 16
2
t 15 12 s
f 12 10 w
15 3

15 9
2
t 7 5 n
t 7 2 e
14 4

10 15
15
r 2 8 w
t 0 4 e
f 6 7 w
h 6 7 e
f 5 8 s
t 7 10 s
t 3 0 w
f 9 12 e
t 1 8 s
h 9 5 e
r 1 10 n
f 6 10 n
r 1 2 n
f 0 7 e
t 0 10 s
12 4

8 18
11
h 2 12 e
t 2 5 s
f 0 2 w
t 4 14 w
h 2 15 s
h 7 4 n
r 6 15 n
t 5 4 w
r 4 11 s
t 7 6 e
f 7 13 n
14 5

19 20
10
t 14 3 w
t 14 17 s
t 3 17 e
f 18 10 w
t 10 8 s
t 0 7 s
h 2 14 w
f 10 12 n
r 17 10 s
t 17 12 e
14 4

20 5
13
f 7 3 s
t 4 1 n
h 14 4 n
h 8 4 s
r 7 2 w
r 14 4 e
f 18 1 s
t 11 1 e
r 19 1 e
h 4 1 s
t 16 4 s
h 11 4 w
h 3 0 s
12 3

3 18
4
r 1 0 w
h 1 1 w
h 1 16 s
t 0 6 n
12 5

7 13
13
t 4 9 n
h 1 9 e
t 0 1 s
r 3 11 w
r 2 7 n
r 6 0 s
t 2 5 e
h 5 4 n
f 5 5 e
t 1 3 e
h 6 1 w
r 4 6 w
t 5 4 e
11 3

1 7
9
h 0 1 w
t 0 6 s
h 0 6 e
r 0 1 s
t 0 2 s
r 0 5 n
h 0 4 s
t 0 3 w
h 0 1 w
13 4
