*** Darwin 6x6 ***
Turn = 0.
  012345
0 ......
1 ......
2 ......
3 ...h..
4 ......
5 ......

*** Darwin 13x10 ***
Turn = 0.
  0123456789
0 ..........
1 t.........
2 ..........
3 .....h....
4 .f........
5 ......t...
6 ..h...r...
7 ..........
8 .......h.f
9 hf.......r
0 ......t...
1 ........h.
2 .h....r...

Turn = 71.
  0123456789
0 .r.r......
1 ......r...
2 ....r.....
3 .....r....
4 ......rr..
5 .....rr...
6 .....r.t..
7 ...r......
8 .r........
9 ..........
0 ..........
1 ..........
2 ...r.r....

Turn = 142.
  0123456789
0 ...r.r...r
1 r..r....rr
2 r........r
3 .....r....
4 ..........
5 .....rr...
6 ..........
7 ..........
8 .......r.r
9 r.........
0 ..........
1 ..........
2 ..........

Turn = 213.
  0123456789
0 rr.......r
1 ..........
2 ..........
3 ..........
4 ..........
5 r.........
6 ..........
7 r.......r.
8 .......r.r
9 .........r
0 .......r..
1 .....r...r
2 .......rrr

Turn = 284.
  0123456789
0 rrr.......
1 ..........
2 ........r.
3 ..........
4 r.......rr
5 ..........
6 ..........
7 r.........
8 ..rr......
9 ..........
0 ..........
1 .........r
2 ..r..rr..r

Turn = 355.
  0123456789
0 .r.......r
1 ..........
2 ..........
3 ....r.r...
4 r.........
5 .r........
6 r.........
7 rr........
8 .......r..
9 .........r
0 .........r
1 ...r.....r
2 ....r.....

Turn = 426.
  0123456789
0 r......r..
1 ..........
2 .......r..
3 r.........
4 ........r.
5 ..........
6 ..........
7 .rr.......
8 .r........
9 .......r..
0 r.........
1 r.....r..r
2 .....rr...

Turn = 497.
  0123456789
0 rr........
1 .........r
2 ..........
3 ..........
4 r.........
5 ..........
6 ..........
7 r.........
8 rr.r..r...
9 .........r
0 ..r.......
1 ..........
2 r..rr..r..

Turn = 568.
  0123456789
0 rrr....r..
1 ..........
2 ..........
3 .r.......r
4 ..........
5 ..........
6 ..........
7 ...r......
8 ....r....r
9 ......r...
0 ....r.....
1 .....r....
2 r.....r..r

Turn = 639.
  0123456789
0 rrr..rr..r
1 .....r....
2 .....r....
3 ..........
4 ..........
5 .........r
6 r.........
7 ..........
8 r.........
9 .r........
0 .r........
1 ....r.....
2 ....r.....

Turn = 710.
  0123456789
0 .r..rr...r
1 ..........
2 ....r.....
3 r.........
4 r.........
5 ..........
6 ..r.......
7 ..........
8 ..........
9 .........r
0 ........r.
1 .rr.r.....
2 r.r.......

Turn = 781.
  0123456789
0 rr......r.
1 ..........
2 rr.r....r.
3 .......r..
4 .........r
5 ..........
6 r.........
7 ..........
8 r....r..r.
9 ......r...
0 ..........
1 ..........
2 .........r

Turn = 852.
  0123456789
0 ......rr..
1 ..........
2 ..........
3 ........r.
4 .r........
5 .r........
6 ..........
7 ..........
8 r......rr.
9 r..r......
0 r........r
1 .......r..
2 r.r.......

Turn = 923.
  0123456789
0 r..r.....r
1 r.........
2 ...r......
3 .........r
4 .r.r......
5 ..r.r.....
6 .....rr...
7 r.........
8 ..........
9 ..........
0 ..........
1 ..........
2 r........r

Turn = 994.
  0123456789
0 .r....rr..
1 ..........
2 ..........
3 r.........
4 .r.r......
5 .r........
6 .r...r....
7 .r........
8 ..........
9 ..........
0 ..........
1 .....r..r.
2 ....rr.r..

Turn = 1065.
  0123456789
0 r....r..rr
1 ....r.....
2 ......r...
3 ..........
4 ..........
5 .r.......r
6 ..........
7 ..........
8 .....r....
9 .........r
0 rr..r.....
1 ..........
2 ......r..r

Turn = 1136.
  0123456789
0 r.r.......
1 ..........
2 ..........
3 .........r
4 .r.......r
5 .........r
6 ........r.
7 r.rr......
8 ..........
9 r.r.......
0 ..........
1 ..........
2 .......rrr

Turn = 1207.
  0123456789
0 ........rr
1 ..........
2 ..........
3 .r........
4 r.r.r.....
5 r.........
6 rr........
7 .........r
8 ..r.......
9 ..........
0 ..........
1 ........r.
2 r......r.r

Turn = 1278.
  0123456789
0 r.r......r
1 ....r.....
2 ..........
3 rrr.......
4 r.........
5 ....r.....
6 r........r
7 ..........
8 r.........
9 ..........
0 .......r..
1 ..........
2 ....r.r...

Turn = 1349.
  0123456789
0 .......rr.
1 ......r...
2 r........r
3 .r........
4 .........r
5 ..........
6 ..........
7 r....r....
8 ......r...
9 .........r
0 ........r.
1 r.........
2 .r......r.

Turn = 1420.
  0123456789
0 rr..r.....
1 ..r.r.....
2 r.........
3 .........r
4 r..r......
5 ..........
6 r.........
7 ..........
8 ....rr....
9 ...r.....r
0 ..........
1 ..........
2 ..r.......

Turn = 1491.
  0123456789
0 ....r..r..
1 ..........
2 ......r...
3 ..r.......
4 ..........
5 ....r.....
6 ..........
7 ...r.....r
8 .....r....
9 ..........
0 .....r....
1 r....r...r
2 r....rr...

Turn = 1562.
  0123456789
0 ..r.r..r.r
1 ..........
2 ..........
3 .........r
4 ........rr
5 r........r
6 ..........
7 ..........
8 r.........
9 ......r...
0 ..........
1 r.........
2 .r..r....r

Turn = 1633.
  0123456789
0 r.......rr
1 .......r..
2 ....r.....
3 .r...r....
4 ..........
5 ..........
6 ...r......
7 ..........
8 .rr.......
9 ..........
0 ..........
1 rrr.......
2 ...r..r...

Turn = 1704.
  0123456789
0 ...rr..rr.
1 ..........
2 ........rr
3 ..........
4 r.........
5 r.rr......
6 ...r......
7 rr........
8 r.........
9 ..........
0 ..........
1 .........r
2 ..........

Turn = 1775.
  0123456789
0 r..r......
1 r.........
2 ..........
3 ..........
4 ..........
5 .........r
6 ..........
7 r........r
8 ..r.......
9 ..r.......
0 ...r.r....
1 ..........
2 ..rrrr..r.

Turn = 1846.
  0123456789
0 .........r
1 ..........
2 ..........
3 ..........
4 ..r.......
5 r..r......
6 r.......r.
7 ..r.......
8 r.........
9 .......r.r
0 ..r.......
1 ....r.....
2 r.....r.r.

Turn = 1917.
  0123456789
0 ..........
1 ...r......
2 ..r.......
3 ..........
4 ..........
5 ..........
6 r.......r.
7 .r....r...
8 .r...r...r
9 .....r.r..
0 r.........
1 r..r.....r
2 ..........

*** Darwin 14x11 ***
Turn = 0.
  01234567890
0 ...........
1 ...........
2 .......f...
3 ...........
4 ...........
5 ...........
6 ...........
7 ...........
8 ..........t
9 ...........
0 ...........
1 ...........
2 ...........
3 ...........

Turn = 93.
  01234567890
0 ...........
1 ...........
2 .......f...
3 ...........
4 ...........
5 ...........
6 ...........
7 ...........
8 ..........t
9 ...........
0 ...........
1 ...........
2 ...........
3 ...........

Turn = 186.
  01234567890
0 ...........
1 ...........
2 .......f...
3 ...........
4 ...........
5 ...........
6 ...........
7 ...........
8 ..........t
9 ...........
0 ...........
1 ...........
2 ...........
3 ...........

Turn = 279.
  01234567890
0 ...........
1 ...........
2 .......f...
3 ...........
4 ...........
5 ...........
6 ...........
7 ...........
8 ..........t
9 ...........
0 ...........
1 ...........
2 ...........
3 ...........

Turn = 372.
  01234567890
0 ...........
1 ...........
2 .......f...
3 ...........
4 ...........
5 ...........
6 ...........
7 ...........
8 ..........t
9 ...........
0 ...........
1 ...........
2 ...........
3 ...........

Turn = 465.
  01234567890
0 ...........
1 ...........
2 .......f...
3 ...........
4 ...........
5 ...........
6 ...........
7 ...........
8 ..........t
9 ...........
0 ...........
1 ...........
2 ...........
3 ...........

Turn = 558.
  01234567890
0 ...........
1 ...........
2 .......f...
3 ...........
4 ...........
5 ...........
6 ...........
7 ...........
8 ..........t
9 ...........
0 ...........
1 ...........
2 ...........
3 ...........

Turn = 651.
  01234567890
0 ...........
1 ...........
2 .......f...
3 ...........
4 ...........
5 ...........
6 ...........
7 ...........
8 ..........t
9 ...........
0 ...........
1 ...........
2 ...........
3 ...........

Turn = 744.
  01234567890
0 ...........
1 ...........
2 .......f...
3 ...........
4 ...........
5 ...........
6 ...........
7 ...........
8 ..........t
9 ...........
0 ...........
1 ...........
2 ...........
3 ...........

Turn = 837.
  01234567890
0 ...........
1 ...........
2 .......f...
3 ...........
4 ...........
5 ...........
6 ...........
7 ...........
8 ..........t
9 ...........
0 ...........
1 ...........
2 ...........
3 ...........

Turn = 930.
  01234567890
0 ...........
1 ...........
2 .......f...
3 ...........
4 ...........
5 ...........
6 ...........
7 ...........
8 ..........t
9 ...........
0 ...........
1 ...........
2 ...........
3 ...........

*** Darwin 6x2 ***
Turn = 0.
  01
0 tf
1 .r
2 .r
3 ft
4 t.
5 ft

*** Darwin 7x1 ***
Turn = 0.
  0
0 .
1 .
2 .
3 .
4 .
5 r
6 .

Turn = 20.
  0
0 .
1 .
2 .
3 r
4 .
5 .
6 .

Turn = 40.
  0
0 r
1 .
2 .
3 .
4 .
5 .
6 .

*** Darwin 12x9 ***
Turn = 0.
  012345678
0 .........
1 ........f
2 .r.......
3 .........
4 .........
5 .........
6 ........f
7 .........
8 ........h
9 .........
0 .........
1 .........

Turn = 134.
  012345678
0 .........
1 ........r
2 ......r..
3 .........
4 .........
5 .........
6 .........
7 .........
8 .........
9 .........
0 .........
1 ..r..r...

Turn = 268.
  012345678
0 .......rr
1 ...r.....
2 .........
3 .........
4 .........
5 r........
6 .........
7 .........
8 .........
9 .........
0 .........
1 .........

Turn = 402.
  012345678
0 .........
1 .........
2 ........r
3 .......r.
4 .........
5 .........
6 .........
7 .........
8 .........
9 .........
0 r........
1 r........

Turn = 536.
  012345678
0 r........
1 ........r
2 .........
3 .........
4 .........
5 .........
6 .........
7 .........
8 .........
9 .........
0 ....rr...
1 .........

Turn = 670.
  012345678
0 .........
1 .........
2 .........
3 r........
4 .........
5 ........r
6 .........
7 .........
8 .........
9 .........
0 .........
1 .r......r

*** Darwin 7x12 ***
Turn = 0.
  012345678901
0 ......r.....
1 ..r.....h..h
2 ......f.....
3 ...........r
4 .........hh.
5 ...ff......h
6 ...f......h.

Turn = 109.
  012345678901
0 .......r....
1 ............
2 ............
3 r......rr...
4 ............
5 r........r..
6 r...r.r.rrrr

Turn = 218.
  012345678901
0 r........r..
1 .r.r.....r..
2 ..r.........
3 ...rr.......
4 r...........
5 ..r.........
6 ....rr.r....

Turn = 327.
  012345678901
0 .....rr.r...
1 ..r.r...rr..
2 ..........r.
3 ............
4 ............
5 .....r....r.
6 r.......r.r.

Turn = 436.
  012345678901
0 rr..........
1 rr..r.r.r...
2 ............
3 .....r......
4 ............
5 .....r.r....
6 ......rr...r

Turn = 545.
  012345678901
0 ..r.........
1 r...........
2 ............
3 r...........
4 .........r.r
5 .......rr...
6 r...r.rrrr..

Turn = 654.
  012345678901
0 rrrr.......r
1 ..r.........
2 .......r....
3 ............
4 ......r.....
5 ...........r
6 .r....rr..r.

Turn = 763.
  012345678901
0 ....r....rr.
1 .r......r.r.
2 ...........r
3 ............
4 .r.........r
5 ...........r
6 rr.........r

Turn = 872.
  012345678901
0 r.......rr..
1 ........r...
2 r.......rr..
3 r...........
4 .r.......r..
5 ...........r
6 r........r..

Turn = 981.
  012345678901
0 r...rr....rr
1 ..........rr
2 ..........r.
3 .....rr....r
4 ............
5 ............
6 r.......r...

Turn = 1090.
  012345678901
0 ...r........
1 ...........r
2 r.....r.....
3 ..r.r.......
4 ...r........
5 ...r.r......
6 .r..rr.r....

Turn = 1199.
  012345678901
0 ............
1 .....r.r....
2 ............
3 rr......r..r
4 .......r...r
5 ......r.r...
6 r....r.r....

Turn = 1308.
  012345678901
0 r.......r...
1 .........r..
2 r.r.........
3 ..r.........
4 rr.....r....
5 .....r..r...
6 ......r.r...

Turn = 1417.
  012345678901
0 .r..r.......
1 ..........rr
2 ...r.......r
3 ...r.......r
4 ............
5 ...........r
6 ....r....rrr

Turn = 1526.
  012345678901
0 .r.........r
1 ....r.......
2 ...........r
3 ............
4 r......r..r.
5 .....r.r..rr
6 r........r..

Turn = 1635.
  012345678901
0 ..........rr
1 .......r..rr
2 r.........r.
3 ...........r
4 r...........
5 rr..........
6 r.r.........

Turn = 1744.
  012345678901
0 .rr........r
1 ..r.r.......
2 ............
3 ............
4 ..........r.
5 r.........rr
6 .r..rr.....r

Turn = 1853.
  012345678901
0 rr...rr....r
1 r...........
2 ............
3 .....r......
4 ............
5 .r..........
6 rr......r.rr

*** Darwin 8x12 ***
Turn = 0.
  012345678901
0 ............
1 ......r.....
2 ..r.........
3 ............
4 ...r..h.....
5 .........t..
6 ..f.........
7 t...........

Turn = 24.
  012345678901
0 r.....h....r
1 ............
2 ............
3 ............
4 ............
5 .........t..
6 ..f.........
7 tt..........

Turn = 48.
  012345678901
0 .r..........
1 ............
2 ............
3 ............
4 ............
5 r........t..
6 ..f.........
7 tt.........r

Turn = 72.
  012345678901
0 ............
1 ............
2 ............
3 .........r..
4 ..........r.
5 ............
6 ..f........r
7 tt........r.

Turn = 96.
  012345678901
0 r...........
1 ............
2 ............
3 ............
4 ............
5 ............
6 rrr.........
7 rrr.........

Turn = 120.
  012345678901
0 ........r...
1 ............
2 ....r.......
3 ..........rr
4 ...........r
5 ............
6 r...........
7 r...........

Turn = 144.
  012345678901
0 .......r.r..
1 r.......r..r
2 ............
3 r...........
4 ............
5 ............
6 ............
7 ........r...

Turn = 168.
  012345678901
0 rr..........
1 .r..........
2 .r..........
3 .....r......
4 .....r......
5 ............
6 ............
7 ......r.....

Turn = 192.
  012345678901
0 ...........r
1 ............
2 r...........
3 ..........r.
4 ............
5 ..........r.
6 ............
7 .......r.r.r

Turn = 216.
  012345678901
0 ............
1 ............
2 ............
3 r...........
4 .......r....
5 r...........
6 r..........r
7 r..r........

Turn = 240.
  012345678901
0 ............
1 ............
2 .r..........
3 ............
4 .r..........
5 r.......r...
6 ........r...
7 r.....r.....

Turn = 264.
  012345678901
0 .........r..
1 ............
2 ............
3 ............
4 ..........rr
5 .........rrr
6 ..........r.
7 ............

Turn = 288.
  012345678901
0 ..r.........
1 ......r.....
2 ......r.....
3 ..........r.
4 ...........r
5 r...........
6 ............
7 .........r..

Turn = 312.
  012345678901
0 ..r........r
1 ..r.........
2 .rr.........
3 ............
4 r...........
5 ............
6 ............
7 ..r.........

Turn = 336.
  012345678901
0 .......r..rr
1 ............
2 ............
3 ............
4 ............
5 ............
6 .......r..r.
7 ........rr..

Turn = 360.
  012345678901
0 ........r...
1 ............
2 ............
3 ......r.....
4 ...........r
5 ..........r.
6 ...........r
7 ...r.r......

Turn = 384.
  012345678901
0 r..r........
1 ..r.........
2 ............
3 ............
4 r...........
5 ............
6 ............
7 rr....r.....

Turn = 408.
  012345678901
0 ..........r.
1 ............
2 ...........r
3 .........r.r
4 ............
5 r..........r
6 ............
7 ......r.....

Turn = 432.
  012345678901
0 ........r..r
1 r......r....
2 .r..........
3 ............
4 ............
5 r........r..
6 ............
7 ............

Turn = 456.
  012345678901
0 r..........r
1 ............
2 .r..........
3 ...........r
4 ............
5 ............
6 ....r.......
7 r...r.......

Turn = 480.
  012345678901
0 r..........r
1 ............
2 ...........r
3 ............
4 ............
5 r...........
6 r.....r.....
7 r...........

Turn = 504.
  012345678901
0 .......r..rr
1 ...........r
2 ............
3 r...........
4 ............
5 ............
6 ............
7 ..r..r......

Turn = 528.
  012345678901
0 .......r.r..
1 .....rr.....
2 ............
3 ............
4 ............
5 ............
6 ............
7 ...r.r...r..

Turn = 552.
  012345678901
0 r...........
1 ............
2 ............
3 r........r.r
4 ........r...
5 ............
6 ....r.......
7 .r..........

Turn = 576.
  012345678901
0 .........r..
1 ........r...
2 ............
3 ....rr.....r
4 ............
5 ............
6 ............
7 .r......r...

Turn = 600.
  012345678901
0 r........r..
1 .........rr.
2 ............
3 ............
4 ..........r.
5 ............
6 ...........r
7 .r..........

Turn = 624.
  012345678901
0 ......r.....
1 ............
2 ............
3 .r..........
4 ............
5 ..r....r....
6 .r......r...
7 .r..........

Turn = 648.
  012345678901
0 r....r......
1 r...........
2 ............
3 r..r........
4 ............
5 ..r.........
6 .r..........
7 ............

Turn = 672.
  012345678901
0 ...r........
1 ............
2 ............
3 ............
4 ...........r
5 ........r..r
6 ..........r.
7 .........rr.

Turn = 696.
  012345678901
0 r..r........
1 r...r.......
2 .r..........
3 ............
4 ............
5 ............
6 ............
7 .........r.r

Turn = 720.
  012345678901
0 r........r..
1 ............
2 ............
3 ............
4 ............
5 ............
6 ....rr......
7 .....rr....r

Turn = 744.
  012345678901
0 r....r....r.
1 r..r..r....r
2 ............
3 ............
4 ............
5 ............
6 ............
7 ............

Turn = 768.
  012345678901
0 ..r........r
1 ............
2 ............
3 r...........
4 r...........
5 ............
6 ...r........
7 r.r.........

Turn = 792.
  012345678901
0 ......r.....
1 ............
2 ............
3 ........r...
4 .r........r.
5 ............
6 ...........r
7 ........rr..

Turn = 816.
  012345678901
0 ...........r
1 ............
2 r...........
3 ............
4 ............
5 ..........r.
6 ...........r
7 r....r...r..

Turn = 840.
  012345678901
0 .r..........
1 ............
2 .......r....
3 ............
4 ............
5 r...........
6 ..........r.
7 ..rr.......r

Turn = 864.
  012345678901
0 ....r.....r.
1 ...........r
2 ............
3 ............
4 ............
5 r..........r
6 ............
7 ..r......r..

Turn = 888.
  012345678901
0 rr..........
1 ............
2 ............
3 ..r.........
4 ..r.r....r..
5 r...........
6 ............
7 ............

Turn = 912.
  012345678901
0 ........r...
1 .........r..
2 .....r....rr
3 ............
4 .........r..
5 ............
6 ............
7 .........r..

Turn = 936.
  012345678901
0 ............
1 ......r.....
2 ............
3 r..r........
4 ............
5 ...r........
6 r...........
7 r......r....

Turn = 960.
  012345678901
0 ...........r
1 ............
2 ............
3 r...........
4 r.r.........
5 r...........
6 ............
7 .....r..r...

Turn = 984.
  012345678901
0 .........r.r
1 ...........r
2 ........r...
3 ............
4 ............
5 r...........
6 ............
7 ...r......r.

Turn = 1008.
  012345678901
0 .........r..
1 ............
2 ............
3 ............
4 .......r....
5 .....r......
6 ..........r.
7 r...rr......

Turn = 1032.
  012345678901
0 ....r.r.....
1 ............
2 r.......rr..
3 ............
4 ............
5 rr..........
6 ............
7 ............

Turn = 1056.
  012345678901
0 ........r..r
1 ............
2 ...........r
3 ...r........
4 ...r........
5 ............
6 ............
7 ......r.r...

Turn = 1080.
  012345678901
0 ..r.....r...
1 ...........r
2 ..........r.
3 ............
4 ............
5 r...........
6 r...........
7 ....r.......

Turn = 1104.
  012345678901
0 ......r.....
1 ............
2 ............
3 ............
4 r..........r
5 ............
6 r........r..
7 r.r.........

Turn = 1128.
  012345678901
0 r.r.........
1 ...........r
2 ............
3 ............
4 ............
5 .....r......
6 .......r....
7 .....r...r..

Turn = 1152.
  012345678901
0 ............
1 ...........r
2 r.r.........
3 rr..........
4 .....r......
5 r...........
6 ............
7 ............

Turn = 1176.
  012345678901
0 ...r.......r
1 ...r........
2 r...........
3 r...........
4 r...........
5 ............
6 ............
7 .........r..

Turn = 1200.
  012345678901
0 ...r..r.....
1 ...rr.r.....
2 ....r.......
3 ............
4 ............
5 ............
6 ............
7 ...........r

Turn = 1224.
  012345678901
0 ..r........r
1 ............
2 ...........r
3 ............
4 ............
5 ............
6 .......r....
7 r....r.....r

Turn = 1248.
  012345678901
0 r.......rr..
1 ............
2 ............
3 r.........r.
4 ............
5 ............
6 ............
7 ....r...r...

Turn = 1272.
  012345678901
0 r...........
1 ............
2 ..........r.
3 ............
4 ............
5 ............
6 .....r....r.
7 r.........rr

Turn = 1296.
  012345678901
0 ............
1 .......r....
2 ...r........
3 ...........r
4 ............
5 r...........
6 ............
7 rr.....r....

Turn = 1320.
  012345678901
0 r...........
1 r.........r.
2 ............
3 ............
4 ........rr.r
5 ............
6 ............
7 ........r...

Turn = 1344.
  012345678901
0 ....r...r...
1 ............
2 ............
3 ............
4 ...........r
5 ............
6 r...........
7 .......rr..r

Turn = 1368.
  012345678901
0 ..r.r.......
1 ............
2 ............
3 ............
4 ............
5 ............
6 ............
7 r...rrr.r...

Turn = 1392.
  012345678901
0 ......r...r.
1 ............
2 ...........r
3 ........r...
4 .......r.r..
5 ............
6 ............
7 ..........r.

Turn = 1416.
  012345678901
0 r.rr..r.....
1 ............
2 ............
3 ........r...
4 ............
5 r...........
6 ............
7 ...........r

Turn = 1440.
  012345678901
0 r...........
1 rr..........
2 ...........r
3 ............
4 ............
5 r...........
6 ............
7 .........r.r

Turn = 1464.
  012345678901
0 ...r........
1 ............
2 .....r..r...
3 .........r..
4 ...........r
5 ............
6 ..........r.
7 ...........r

*** Darwin 9x5 ***
Turn = 0.
  01234
0 .....
1 .ff.t
2 ..r.f
3 .h...
4 r..h.
5 fr.f.
6 .....
7 ..t..
8 ....r

Turn = 30.
  01234
0 .rr.r
1 .r..r
2 .....
3 .....
4 r....
5 r....
6 r....
7 ....r
8 .rrrr

Turn = 60.
  01234
0 rrrrr
1 r....
2 r..r.
3 .....
4 .....
5 .....
6 .....
7 rr.r.
8 .r.r.

Turn = 90.
  01234
0 .r..r
1 ...rr
2 .....
3 .r...
4 rr..r
5 ..r..
6 ....r
7 ...r.
8 ...rr

Turn = 120.
  01234
0 .r...
1 ....r
2 ...rr
3 ...rr
4 r..r.
5 ...rr
6 r....
7 r...r
8 .....

*** Darwin 13x7 ***
Turn = 0.
  0123456
0 .......
1 ..h....
2 .......
3 .......
4 ...t...
5 .......
6 .......
7 .......
8 .......
9 ...t...
0 .......
1 .......
2 ...f.r.

Turn = 115.
  0123456
0 .......
1 .....r.
2 .......
3 .......
4 r..t...
5 .......
6 .......
7 .......
8 .......
9 ...t...
0 .......
1 .......
2 r......

Turn = 230.
  0123456
0 .......
1 .......
2 .......
3 .......
4 .......
5 .......
6 ....r..
7 .......
8 ......r
9 .......
0 ......r
1 ...r...
2 .r.....

Turn = 345.
  0123456
0 .......
1 ......r
2 .....r.
3 .......
4 .......
5 .......
6 .......
7 r......
8 .......
9 .......
0 .......
1 .......
2 ....r.r

Turn = 460.
  0123456
0 rr.....
1 .......
2 r......
3 .......
4 .......
5 .......
6 .......
7 .......
8 .......
9 .......
0 .......
1 .......
2 r....r.

*** Darwin 3x5 ***
Turn = 0.
  01234
0 rtt.h
1 t...f
2 .r...

Turn = 59.
  01234
0 ttt.h
1 t...f
2 t....

Turn = 118.
  01234
0 ttt.h
1 t...f
2 t....

Turn = 177.
  01234
0 ttt.h
1 t...f
2 t....

Turn = 236.
  01234
0 ttt.h
1 t...f
2 t....

Turn = 295.
  01234
0 ttt.h
1 t...f
2 t....

Turn = 354.
  01234
0 ttt.h
1 t...f
2 t....

Turn = 413.
  01234
0 ttt.h
1 t...f
2 t....

Turn = 472.
  01234
0 ttt.h
1 t...f
2 t....

Turn = 531.
  01234
0 ttt.h
1 t...f
2 t....

Turn = 590.
  01234
0 ttt.h
1 t...f
2 t....

Turn = 649.
  01234
0 ttt.h
1 t...f
2 t....

Turn = 708.
  01234
0 ttt.h
1 t...f
2 t....

Turn = 767.
  01234
0 ttt.h
1 t...f
2 t....

Turn = 826.
  01234
0 ttt.h
1 t...f
2 t....

Turn = 885.
  01234
0 ttt.h
1 t...f
2 t....

Turn = 944.
  01234
0 ttt.h
1 t...f
2 t....

Turn = 1003.
  01234
0 ttt.h
1 t...f
2 t....

Turn = 1062.
  01234
0 ttt.h
1 t...f
2 t....

Turn = 1121.
  01234
0 ttt.h
1 t...f
2 t....

Turn = 1180.
  01234
0 ttt.h
1 t...f
2 t....

Turn = 1239.
  01234
0 ttt.h
1 t...f
2 t....

Turn = 1298.
  01234
0 ttt.h
1 t...f
2 t....

Turn = 1357.
  01234
0 ttt.h
1 t...f
2 t....

Turn = 1416.
  01234
0 ttt.h
1 t...f
2 t....

*** Darwin 14x1 ***
Turn = 0.
  0
0 .
1 f
2 h
3 t
4 f
5 h
6 r
7 f
8 t
9 h
0 r
1 h
2 f
3 t

Turn = 157.
  0
0 .
1 t
2 t
3 t
4 t
5 t
6 t
7 t
8 t
9 t
0 t
1 t
2 t
3 t

Turn = 314.
  0
0 .
1 t
2 t
3 t
4 t
5 t
6 t
7 t
8 t
9 t
0 t
1 t
2 t
3 t

Turn = 471.
  0
0 .
1 t
2 t
3 t
4 t
5 t
6 t
7 t
8 t
9 t
0 t
1 t
2 t
3 t

Turn = 628.
  0
0 .
1 t
2 t
3 t
4 t
5 t
6 t
7 t
8 t
9 t
0 t
1 t
2 t
3 t

Turn = 785.
  0
0 .
1 t
2 t
3 t
4 t
5 t
6 t
7 t
8 t
9 t
0 t
1 t
2 t
3 t

Turn = 942.
  0
0 .
1 t
2 t
3 t
4 t
5 t
6 t
7 t
8 t
9 t
0 t
1 t
2 t
3 t

Turn = 1099.
  0
0 .
1 t
2 t
3 t
4 t
5 t
6 t
7 t
8 t
9 t
0 t
1 t
2 t
3 t

Turn = 1256.
  0
0 .
1 t
2 t
3 t
4 t
5 t
6 t
7 t
8 t
9 t
0 t
1 t
2 t
3 t

Turn = 1413.
  0
0 .
1 t
2 t
3 t
4 t
5 t
6 t
7 t
8 t
9 t
0 t
1 t
2 t
3 t

*** Darwin 4x13 ***
Turn = 0.
  0123456789012
0 ....r..t.....
1 .......t.....
2 ..t..........
3 .............

Turn = 26.
  0123456789012
0 ..........r.r
1 .......t.....
2 ..t..........
3 .............

Turn = 52.
  0123456789012
0 ....r........
1 .......t.....
2 ..t..........
3 r............

Turn = 78.
  0123456789012
0 ........r....
1 .......t....r
2 ..t..........
3 .............

Turn = 104.
  0123456789012
0 .............
1 .......t.....
2 ..t..........
3 ........rr...

Turn = 130.
  0123456789012
0 ............r
1 .......t.....
2 ..t..........
3 ............r

Turn = 156.
  0123456789012
0 ..........r..
1 r......t.....
2 ..t..........
3 .............

Turn = 182.
  0123456789012
0 .............
1 r......t.....
2 ..t..........
3 ...........r.

Turn = 208.
  0123456789012
0 ......r...r..
1 .......t.....
2 ..t..........
3 .............

Turn = 234.
  0123456789012
0 ............r
1 .......t.....
2 ..t..........
3 ...........r.

Turn = 260.
  0123456789012
0 ....r........
1 .......t.....
2 .......r.r...
3 .............

Turn = 286.
  0123456789012
0 .r...........
1 .......tt....
2 .r...........
3 .............

Turn = 312.
  0123456789012
0 .......t.....
1 .......tt....
2 ........t....
3 .............

Turn = 338.
  0123456789012
0 .......t.....
1 .......tt....
2 ........t....
3 .............

Turn = 364.
  0123456789012
0 .......t.....
1 .......tt....
2 ........t....
3 .............

Turn = 390.
  0123456789012
0 .......t.....
1 .......tt....
2 ........t....
3 .............

Turn = 416.
  0123456789012
0 .......t.....
1 .......tt....
2 ........t....
3 .............

Turn = 442.
  0123456789012
0 .......t.....
1 .......tt....
2 ........t....
3 .............

Turn = 468.
  0123456789012
0 .......t.....
1 .......tt....
2 ........t....
3 .............

Turn = 494.
  0123456789012
0 .......t.....
1 .......tt....
2 ........t....
3 .............

Turn = 520.
  0123456789012
0 .......t.....
1 .......tt....
2 ........t....
3 .............

Turn = 546.
  0123456789012
0 .......t.....
1 .......tt....
2 ........t....
3 .............

Turn = 572.
  0123456789012
0 .......t.....
1 .......tt....
2 ........t....
3 .............

Turn = 598.
  0123456789012
0 .......t.....
1 .......tt....
2 ........t....
3 .............

Turn = 624.
  0123456789012
0 .......t.....
1 .......tt....
2 ........t....
3 .............

Turn = 650.
  0123456789012
0 .......t.....
1 .......tt....
2 ........t....
3 .............

Turn = 676.
  0123456789012
0 .......t.....
1 .......tt....
2 ........t....
3 .............

Turn = 702.
  0123456789012
0 .......t.....
1 .......tt....
2 ........t....
3 .............

Turn = 728.
  0123456789012
0 .......t.....
1 .......tt....
2 ........t....
3 .............

Turn = 754.
  0123456789012
0 .......t.....
1 .......tt....
2 ........t....
3 .............

Turn = 780.
  0123456789012
0 .......t.....
1 .......tt....
2 ........t....
3 .............

Turn = 806.
  0123456789012
0 .......t.....
1 .......tt....
2 ........t....
3 .............

Turn = 832.
  0123456789012
0 .......t.....
1 .......tt....
2 ........t....
3 .............

Turn = 858.
  0123456789012
0 .......t.....
1 .......tt....
2 ........t....
3 .............

Turn = 884.
  0123456789012
0 .......t.....
1 .......tt....
2 ........t....
3 .............

Turn = 910.
  0123456789012
0 .......t.....
1 .......tt....
2 ........t....
3 .............

Turn = 936.
  0123456789012
0 .......t.....
1 .......tt....
2 ........t....
3 .............

Turn = 962.
  0123456789012
0 .......t.....
1 .......tt....
2 ........t....
3 .............

Turn = 988.
  0123456789012
0 .......t.....
1 .......tt....
2 ........t....
3 .............

Turn = 1014.
  0123456789012
0 .......t.....
1 .......tt....
2 ........t....
3 .............

Turn = 1040.
  0123456789012
0 .......t.....
1 .......tt....
2 ........t....
3 .............

Turn = 1066.
  0123456789012
0 .......t.....
1 .......tt....
2 ........t....
3 .............

Turn = 1092.
  0123456789012
0 .......t.....
1 .......tt....
2 ........t....
3 .............

Turn = 1118.
  0123456789012
0 .......t.....
1 .......tt....
2 ........t....
3 .............

*** Darwin 15x10 ***
Turn = 0.
  0123456789
0 .........f
1 ..h.......
2 ..t.......
3 .........h
4 ..........
5 ...t.f....
6 ....r.....
7 ...f......
8 .......r..
9 ..........
0 ..........
1 ........r.
2 ..........
3 .......h..
4 ......h...

Turn = 164.
  0123456789
0 ..r...r..r
1 .......r..
2 ..........
3 ..........
4 ..........
5 ..........
6 ..........
7 ..........
8 ..........
9 r........r
0 .....r....
1 ..........
2 r...r.....
3 .........r
4 ..r...r...

Turn = 328.
  0123456789
0 r.......r.
1 ..........
2 r........r
3 r.....r.r.
4 ..........
5 ......r...
6 .....r....
7 ..........
8 ..........
9 ..........
0 ..........
1 ..........
2 ..........
3 ..........
4 .r.r....r.

Turn = 492.
  0123456789
0 rr........
1 r.........
2 ..........
3 rr.......r
4 ..........
5 ..........
6 ..........
7 ..........
8 ..........
9 ..........
0 .......r..
1 ..........
2 ..........
3 ..rr......
4 r...r....r

*** Darwin 3x15 ***
Turn = 0.
  012345678901234
0 ....r......t...
1 .h...t.h.......
2 .r.......f.....

Turn = 29.
  012345678901234
0 rr....r.r......
1 ...............
2 .r.....h.f.....

Turn = 58.
  012345678901234
0 ..........r....
1 ......r.......r
2 r....r.......rr

Turn = 87.
  012345678901234
0 .r.r...........
1 r......r.......
2 ..r......r..r..

Turn = 116.
  012345678901234
0 .....r.........
1 r..............
2 rrr......r....r

Turn = 145.
  012345678901234
0 ...........r..r
1 ...........r...
2 ..........r.rrr

Turn = 174.
  012345678901234
0 r....r........r
1 ...............
2 rr.....r..r....

*** Darwin 6x5 ***
Turn = 0.
  01234
0 ..t..
1 .....
2 ...tr
3 .....
4 .r..h
5 .f..f

Turn = 128.
  01234
0 .r..r
1 .....
2 .....
3 r....
4 r....
5 .rrr.

Turn = 256.
  01234
0 r..r.
1 .r..r
2 .r...
3 .r...
4 .....
5 ....r

Turn = 384.
  01234
0 ..r..
1 .....
2 r....
3 rr...
4 rr...
5 ...r.

Turn = 512.
  01234
0 ..r.r
1 r....
2 r...r
3 ....r
4 .....
5 ...r.

*** Darwin 7x4 ***
Turn = 0.
  0123
0 .h..
1 ..h.
2 ....
3 f..r
4 .f..
5 ....
6 .t..

Turn = 199.
  0123
0 ....
1 ....
2 ....
3 fh..
4 .f..
5 ....
6 .ttt

Turn = 398.
  0123
0 ....
1 ....
2 ....
3 fh..
4 .f..
5 ....
6 .ttt

Turn = 597.
  0123
0 ....
1 ....
2 ....
3 fh..
4 .f..
5 ....
6 .ttt

Turn = 796.
  0123
0 ....
1 ....
2 ....
3 fh..
4 .f..
5 ....
6 .ttt

Turn = 995.
  0123
0 ....
1 ....
2 ....
3 fh..
4 .f..
5 ....
6 .ttt

*** Darwin 14x7 ***
Turn = 0.
  0123456
0 ....r..
1 .......
2 .......
3 ..f....
4 .......
5 ...h...
6 .......
7 .......
8 f.....t
9 ...t...
0 .......
1 ....f..
2 ....r..
3 ....h..

Turn = 67.
  0123456
0 .r...r.
1 .......
2 .....rr
3 ..f....
4 .......
5 .......
6 .......
7 .......
8 ....t..
9 ...tt..
0 .......
1 .......
2 ......r
3 .......

Turn = 134.
  0123456
0 .......
1 .......
2 .......
3 ..f....
4 .......
5 .......
6 .......
7 .......
8 ....t.t
9 ...tt.t
0 ......t
1 ......t
2 .......
3 r......

Turn = 201.
  0123456
0 .......
1 .......
2 .......
3 ..f....
4 .......
5 .......
6 .......
7 .......
8 r...t.t
9 ...tt.t
0 ......t
1 ......t
2 .......
3 .......

Turn = 268.
  0123456
0 .......
1 .......
2 .......
3 ..f....
4 .......
5 .......
6 .......
7 ....t..
8 ....t.t
9 ...tt.t
0 ......t
1 ......t
2 .......
3 .......

Turn = 335.
  0123456
0 .......
1 .......
2 .......
3 ..f....
4 .......
5 .......
6 .......
7 ....t..
8 ....t.t
9 ...tt.t
0 ......t
1 ......t
2 .......
3 .......

Turn = 402.
  0123456
0 .......
1 .......
2 .......
3 ..f....
4 .......
5 .......
6 .......
7 ....t..
8 ....t.t
9 ...tt.t
0 ......t
1 ......t
2 .......
3 .......

Turn = 469.
  0123456
0 .......
1 .......
2 .......
3 ..f....
4 .......
5 .......
6 .......
7 ....t..
8 ....t.t
9 ...tt.t
0 ......t
1 ......t
2 .......
3 .......

Turn = 536.
  0123456
0 .......
1 .......
2 .......
3 ..f....
4 .......
5 .......
6 .......
7 ....t..
8 ....t.t
9 ...tt.t
0 ......t
1 ......t
2 .......
3 .......

Turn = 603.
  0123456
0 .......
1 .......
2 .......
3 ..f....
4 .......
5 .......
6 .......
7 ....t..
8 ....t.t
9 ...tt.t
0 ......t
1 ......t
2 .......
3 .......

Turn = 670.
  0123456
0 .......
1 .......
2 .......
3 ..f....
4 .......
5 .......
6 .......
7 ....t..
8 ....t.t
9 ...tt.t
0 ......t
1 ......t
2 .......
3 .......

Turn = 737.
  0123456
0 .......
1 .......
2 .......
3 ..f....
4 .......
5 .......
6 .......
7 ....t..
8 ....t.t
9 ...tt.t
0 ......t
1 ......t
2 .......
3 .......

Turn = 804.
  0123456
0 .......
1 .......
2 .......
3 ..f....
4 .......
5 .......
6 .......
7 ....t..
8 ....t.t
9 ...tt.t
0 ......t
1 ......t
2 .......
3 .......

Turn = 871.
  0123456
0 .......
1 .......
2 .......
3 ..f....
4 .......
5 .......
6 .......
7 ....t..
8 ....t.t
9 ...tt.t
0 ......t
1 ......t
2 .......
3 .......

Turn = 938.
  0123456
0 .......
1 .......
2 .......
3 ..f....
4 .......
5 .......
6 .......
7 ....t..
8 ....t.t
9 ...tt.t
0 ......t
1 ......t
2 .......
3 .......

Turn = 1005.
  0123456
0 .......
1 .......
2 .......
3 ..f....
4 .......
5 .......
6 .......
7 ....t..
8 ....t.t
9 ...tt.t
0 ......t
1 ......t
2 .......
3 .......

Turn = 1072.
  0123456
0 .......
1 .......
2 .......
3 ..f....
4 .......
5 .......
6 .......
7 ....t..
8 ....t.t
9 ...tt.t
0 ......t
1 ......t
2 .......
3 .......

Turn = 1139.
  0123456
0 .......
1 .......
2 .......
3 ..f....
4 .......
5 .......
6 .......
7 ....t..
8 ....t.t
9 ...tt.t
0 ......t
1 ......t
2 .......
3 .......

Turn = 1206.
  0123456
0 .......
1 .......
2 .......
3 ..f....
4 .......
5 .......
6 .......
7 ....t..
8 ....t.t
9 ...tt.t
0 ......t
1 ......t
2 .......
3 .......

Turn = 1273.
  0123456
0 .......
1 .......
2 .......
3 ..f....
4 .......
5 .......
6 .......
7 ....t..
8 ....t.t
9 ...tt.t
0 ......t
1 ......t
2 .......
3 .......

Turn = 1340.
  0123456
0 .......
1 .......
2 .......
3 ..f....
4 .......
5 .......
6 .......
7 ....t..
8 ....t.t
9 ...tt.t
0 ......t
1 ......t
2 .......
3 .......

Turn = 1407.
  0123456
0 .......
1 .......
2 .......
3 ..f....
4 .......
5 .......
6 .......
7 ....t..
8 ....t.t
9 ...tt.t
0 ......t
1 ......t
2 .......
3 .......

Turn = 1474.
  0123456
0 .......
1 .......
2 .......
3 ..f....
4 .......
5 .......
6 .......
7 ....t..
8 ....t.t
9 ...tt.t
0 ......t
1 ......t
2 .......
3 .......

Turn = 1541.
  0123456
0 .......
1 .......
2 .......
3 ..f....
4 .......
5 .......
6 .......
7 ....t..
8 ....t.t
9 ...tt.t
0 ......t
1 ......t
2 .......
3 .......

Turn = 1608.
  0123456
0 .......
1 .......
2 .......
3 ..f....
4 .......
5 .......
6 .......
7 ....t..
8 ....t.t
9 ...tt.t
0 ......t
1 ......t
2 .......
3 .......

*** Darwin 14x2 ***
Turn = 0.
  01
0 ..
1 r.
2 ..
3 t.
4 .r
5 ..
6 ..
7 ..
8 ..
9 h.
0 .t
1 .r
2 ..
3 .r

Turn = 105.
  01
0 r.
1 ..
2 r.
3 .r
4 ..
5 ..
6 ..
7 .r
8 .r
9 .r
0 ..
1 ..
2 r.
3 ..

Turn = 210.
  01
0 rr
1 ..
2 ..
3 ..
4 ..
5 .r
6 r.
7 ..
8 ..
9 r.
0 r.
1 ..
2 .r
3 ..

Turn = 315.
  01
0 ..
1 rr
2 ..
3 ..
4 ..
5 r.
6 ..
7 ..
8 ..
9 ..
0 ..
1 .r
2 rr
3 r.

Turn = 420.
  01
0 ..
1 r.
2 r.
3 ..
4 ..
5 ..
6 ..
7 ..
8 ..
9 rr
0 .r
1 .r
2 ..
3 .r

*** Darwin 6x8 ***
Turn = 0.
  01234567
0 ........
1 ...t....
2 ....r...
3 ........
4 ........
5 ........

Turn = 92.
  01234567
0 ...t....
1 ...t....
2 ........
3 ........
4 ........
5 ........

Turn = 184.
  01234567
0 ...t....
1 ...t....
2 ........
3 ........
4 ........
5 ........

Turn = 276.
  01234567
0 ...t....
1 ...t....
2 ........
3 ........
4 ........
5 ........

Turn = 368.
  01234567
0 ...t....
1 ...t....
2 ........
3 ........
4 ........
5 ........

Turn = 460.
  01234567
0 ...t....
1 ...t....
2 ........
3 ........
4 ........
5 ........

Turn = 552.
  01234567
0 ...t....
1 ...t....
2 ........
3 ........
4 ........
5 ........
