*** Darwin 8x7 ***
Turn = 0.
  0123456
0 f......
1 .....h.
2 .......
3 ...t...
4 .......
5 ....h.f
6 .......
7 .......

Turn = 3.
  0123456
0 f....h.
1 .......
2 .......
3 ...t...
4 .......
5 .h....f
6 .......
7 .......

Turn = 6.
  0123456
0 f....h.
1 .......
2 .......
3 ...t...
4 .......
5 h.....f
6 .......
7 .......

Turn = 9.
  0123456
0 f....h.
1 .......
2 .......
3 ...t...
4 .......
5 h.....f
6 .......
7 .......

Turn = 12.
  0123456
0 f....h.
1 .......
2 .......
3 ...t...
4 .......
5 h.....f
6 .......
7 .......

Turn = 15.
  0123456
0 f....h.
1 .......
2 .......
3 ...t...
4 .......
5 h.....f
6 .......
7 .......

*** Darwin 7x8 ***
Turn = 0.
  01234567
0 .t......
1 .....ft.
2 ........
3 ...h..f.
4 r......f
5 ......t.
6 ........

Turn = 3.
  01234567
0 .t......
1 .....tt.
2 ........
3 h.....f.
4 ...r...f
5 ......t.
6 ........

Turn = 6.
  01234567
0 .t......
1 .....tt.
2 ........
3 h.....f.
4 ......tf
5 ......t.
6 ........

Turn = 9.
  01234567
0 .t......
1 .....tt.
2 ........
3 h.....t.
4 ......tt
5 ......t.
6 ........

Turn = 12.
  01234567
0 .t......
1 .....tt.
2 ........
3 h.....t.
4 ......tt
5 ......t.
6 ........

Turn = 15.
  01234567
0 .t......
1 .....tt.
2 ........
3 h.....t.
4 ......tt
5 ......t.
6 ........

*** Darwin 6x6 ***
Turn = 0.
  012345
0 ...t..
1 ......
2 ...h.h
3 ...h..
4 ......
5 .h....

Turn = 3.
  012345
0 ...t.h
1 ...t..
2 ......
3 .....h
4 ......
5 h.....

Turn = 6.
  012345
0 ...t.h
1 ...t..
2 ......
3 .....h
4 ......
5 h.....

Turn = 9.
  012345
0 ...t.h
1 ...t..
2 ......
3 .....h
4 ......
5 h.....

Turn = 12.
  012345
0 ...t.h
1 ...t..
2 ......
3 .....h
4 ......
5 h.....

Turn = 15.
  012345
0 ...t.h
1 ...t..
2 ......
3 .....h
4 ......
5 h.....

*** Darwin 8x7 ***
Turn = 0.
  0123456
0 ...f..r
1 .......
2 ..r...r
3 ....h..
4 .r.....
5 h......
6 .r.....
7 ..h..f.

Turn = 3.
  0123456
0 ...rr..
1 .r.....
2 r......
3 .r...h.
4 ......r
5 h......
6 .......
7 h....f.

Turn = 6.
  0123456
0 .rrr...
1 .r.....
2 .......
3 ......h
4 r......
5 r......
6 .......
7 h....fr

Turn = 9.
  0123456
0 .rr....
1 ..r....
2 ...r...
3 ......h
4 .......
5 r.r....
6 .......
7 h....fr

Turn = 12.
  0123456
0 rr.....
1 .....r.
2 .......
3 ......h
4 .......
5 ...r.rr
6 r......
7 r....f.

Turn = 15.
  0123456
0 r..r...
1 .......
2 ......r
3 ......r
4 ......r
5 r......
6 ...r.r.
7 ...r.r.

*** Darwin 7x7 ***
Turn = 0.
  0123456
0 ...rr..
1 .......
2 .......
3 r......
4 ....f.h
5 .t..h..
6 .......

Turn = 2.
  0123456
0 .......
1 .......
2 r..rr..
3 .......
4 ....f..
5 .t.....
6 ....h.h

Turn = 4.
  0123456
0 r......
1 .......
2 .......
3 ....r..
4 ...r.r.
5 .t.....
6 ....h.h

Turn = 6.
  0123456
0 r......
1 .......
2 .......
3 .......
4 ......r
5 .t..r..
6 ...rh.h

Turn = 8.
  0123456
0 .r.....
1 .......
2 .......
3 .......
4 .......
5 .t..r.r
6 ..r..rr

Turn = 10.
  0123456
0 ...r...
1 .......
2 .......
3 .......
4 .......
5 .t...rr
6 .t...rr

*** Darwin 7x8 ***
Turn = 0.
  01234567
0 .fhf....
1 .....f..
2 r..f....
3 ....t...
4 ........
5 .....r..
6 ........

Turn = 2.
  01234567
0 .fhf....
1 r....f..
2 ...f....
3 ....tr..
4 ........
5 ........
6 ........

Turn = 4.
  01234567
0 rfhf....
1 .....f..
2 ...f....
3 ....tt..
4 ........
5 ........
6 ........

Turn = 6.
  01234567
0 rfhf....
1 .....f..
2 ...f....
3 ....tt..
4 ........
5 ........
6 ........

Turn = 8.
  01234567
0 rr.f....
1 .....f..
2 .r.f....
3 ....tt..
4 ........
5 ........
6 ........

Turn = 10.
  01234567
0 r..f....
1 r....f..
2 ...f....
3 ....tt..
4 .r......
5 ........
6 ........

*** Darwin 8x8 ***
Turn = 0.
  01234567
0 .r..r...
1 ........
2 r.......
3 f.....t.
4 ....r...
5 ........
6 ........
7 .....h..

Turn = 3.
  01234567
0 r...r...
1 ........
2 ........
3 f...r.t.
4 ........
5 ........
6 ........
7 ..h.r...

Turn = 6.
  01234567
0 ...r...r
1 ........
2 ........
3 f.....t.
4 ........
5 ........
6 ....r...
7 h.....r.

Turn = 9.
  01234567
0 ......r.
1 ........
2 .......r
3 f.....t.
4 ........
5 ........
6 ........
7 h..r...r

Turn = 12.
  01234567
0 .......r
1 ........
2 ........
3 f.....tt
4 ........
5 ........
6 ........
7 rr..r...

Turn = 15.
  01234567
0 ....r...
1 ........
2 ........
3 f.....tt
4 ........
5 rr......
6 ........
7 .r......

*** Darwin 7x8 ***
Turn = 0.
  01234567
0 ....h..t
1 ....fr..
2 ........
3 ........
4 ......f.
5 f.......
6 ........

Turn = 2.
  01234567
0 ..h....t
1 ....f...
2 ........
3 .....r..
4 ......f.
5 f.......
6 ........

Turn = 4.
  01234567
0 h......t
1 ....f...
2 ........
3 ........
4 ......f.
5 f....r..
6 ........

Turn = 6.
  01234567
0 h......t
1 ....f...
2 ........
3 ........
4 ......f.
5 f.......
6 .....r..

Turn = 8.
  01234567
0 h......t
1 ....f...
2 ........
3 ........
4 ......f.
5 f.......
6 ...r....

Turn = 10.
  01234567
0 h......t
1 ....f...
2 ........
3 ........
4 ......f.
5 f.......
6 .r......

*** Darwin 7x8 ***
Turn = 0.
  01234567
0 .....t..
1 .r......
2 ....f...
3 ff....f.
4 ......r.
5 .....r..
6 ........

Turn = 1.
  01234567
0 .....t..
1 r.......
2 ....f...
3 ff....f.
4 .......r
5 ........
6 .....r..

Turn = 2.
  01234567
0 .....t..
1 r.......
2 ....f...
3 ff....f.
4 .......r
5 ........
6 .....r..

Turn = 3.
  01234567
0 r....t..
1 ........
2 ....f...
3 ff....fr
4 ........
5 ........
6 ....r...

Turn = 4.
  01234567
0 r....t..
1 ........
2 ....f..r
3 ff....f.
4 ........
5 ........
6 ...r....

Turn = 5.
  01234567
0 .r...t..
1 .......r
2 ....f...
3 ff....f.
4 ........
5 ........
6 ..r.....

*** Darwin 8x8 ***
Turn = 0.
  01234567
0 .....r..
1 ........
2 .....t.f
3 ........
4 ........
5 ........
6 .....h.t
7 ...t....

Turn = 2.
  01234567
0 .......r
1 ........
2 .....t.f
3 ........
4 ........
5 ........
6 ......tt
7 ...t....

Turn = 4.
  01234567
0 ........
1 .......r
2 .....t.f
3 ........
4 ........
5 ........
6 ......tt
7 ...t....

Turn = 6.
  01234567
0 ........
1 .......r
2 .....t.r
3 ........
4 ........
5 ........
6 ......tt
7 ...t....

Turn = 8.
  01234567
0 ........
1 .....t..
2 .....t..
3 .......r
4 ........
5 ........
6 ......tt
7 ...t....

Turn = 10.
  01234567
0 ........
1 .....t..
2 .....t..
3 ........
4 ........
5 .......t
6 ......tt
7 ...t....

*** Darwin 6x8 ***
Turn = 0.
  01234567
0 ........
1 .h...h.t
2 ........
3 ....r...
4 ...f..r.
5 ........

Turn = 4.
  01234567
0 ......r.
1 .h.....t
2 ........
3 ........
4 ...f....
5 .h.r....

Turn = 8.
  01234567
0 ...r....
1 h......t
2 ........
3 ........
4 ..rf....
5 r.......

Turn = 12.
  01234567
0 r.r.....
1 h......t
2 r.......
3 ........
4 ...f....
5 ........

Turn = 16.
  01234567
0 r.......
1 rr.....t
2 r.......
3 ........
4 ...f....
5 ........

Turn = 20.
  01234567
0 .r......
1 r......t
2 ..r.....
3 ........
4 ...f....
5 .r......

*** Darwin 7x6 ***
Turn = 0.
  012345
0 r.....
1 r.....
2 ......
3 ..t.h.
4 ...h..
5 ......
6 t....f

Turn = 1.
  012345
0 .r....
1 r.....
2 ......
3 ..t...
4 ....h.
5 ...h..
6 t....f

Turn = 2.
  012345
0 r.r...
1 ......
2 ......
3 ..t...
4 ......
5 ....h.
6 t..h.f

Turn = 3.
  012345
0 r..r..
1 ......
2 ......
3 ..t...
4 ......
5 ......
6 t..hhf

Turn = 4.
  012345
0 r...r.
1 ......
2 ......
3 ..t...
4 ......
5 ......
6 t..hhf

Turn = 5.
  012345
0 r....r
1 ......
2 ......
3 ..t...
4 ......
5 ......
6 t..hhf

*** Darwin 7x7 ***
Turn = 0.
  0123456
0 ...tr..
1 ff.....
2 .......
3 .......
4 .f.....
5 tt.....
6 .......

Turn = 3.
  0123456
0 ...t..r
1 ff.....
2 .......
3 .......
4 .t.....
5 tt.....
6 .......

Turn = 6.
  0123456
0 ...t..r
1 ff.....
2 .......
3 .......
4 .t.....
5 tt.....
6 .......

Turn = 9.
  0123456
0 ...t...
1 ff.....
2 .......
3 ......r
4 .t.....
5 tt.....
6 .......

Turn = 12.
  0123456
0 ...t...
1 ff.....
2 .......
3 .......
4 .t.....
5 tt.....
6 ......r

Turn = 15.
  0123456
0 ...t...
1 ff.....
2 .......
3 .......
4 .t.....
5 tt.....
6 ....r..

*** Darwin 6x7 ***
Turn = 0.
  0123456
0 .......
1 .....rh
2 ...r...
3 ....r..
4 r..h...
5 .f.....

Turn = 3.
  0123456
0 ....r.h
1 .......
2 r......
3 r......
4 .....r.
5 .f.h...

Turn = 6.
  0123456
0 r....rr
1 r......
2 .......
3 .......
4 .......
5 .f.hr..

Turn = 9.
  0123456
0 r....r.
1 r......
2 .....r.
3 .......
4 .......
5 .fr.r..

Turn = 12.
  0123456
0 .rr....
1 .r.....
2 .......
3 .......
4 .......
5 rr...rr

Turn = 15.
  0123456
0 .rr....
1 ....r..
2 r.....r
3 .......
4 .......
5 r..r...

*** Darwin 7x7 ***
Turn = 0.
  0123456
0 .....r.
1 ....h..
2 .....t.
3 .......
4 ....f..
5 .t...tr
6 .f.....

Turn = 2.
  0123456
0 ...r...
1 ..h....
2 .....t.
3 .......
4 ....f..
5 .t...tt
6 .t.....

Turn = 4.
  0123456
0 .r.....
1 h......
2 .....t.
3 .......
4 ....f..
5 .t...tt
6 .t.....

Turn = 6.
  0123456
0 r......
1 h......
2 .....t.
3 .......
4 ....f..
5 .t...tt
6 .t.....

Turn = 8.
  0123456
0 r......
1 h......
2 .....t.
3 .......
4 ....f..
5 .t...tt
6 .t.....

Turn = 10.
  0123456
0 .r.....
1 h......
2 .....t.
3 .......
4 ....f..
5 .t...tt
6 .t.....

*** Darwin 7x8 ***
Turn = 0.
  01234567
0 h...ht..
1 .......h
2 .......r
3 ....h...
4 .....f..
5 ...f....
6 ........

Turn = 2.
  01234567
0 ..h.tt..
1 .......h
2 ........
3 ..h....r
4 .....f..
5 ...f....
6 ........

Turn = 4.
  01234567
0 ...ttt..
1 ........
2 ........
3 h......h
4 .....f..
5 ...f...r
6 ........

Turn = 6.
  01234567
0 ...ttt..
1 ........
2 ........
3 h.......
4 .....f..
5 ...f...h
6 .......r

Turn = 8.
  01234567
0 ...ttt..
1 ........
2 ........
3 h.......
4 .....f..
5 ...f...h
6 .......r

Turn = 10.
  01234567
0 ...ttt..
1 ........
2 ........
3 h.......
4 .....f..
5 ...f....
6 .....r.h

*** Darwin 8x7 ***
Turn = 0.
  0123456
0 .f.....
1 .t.....
2 f.....h
3 .......
4 ...f...
5 .......
6 .......
7 t......

Turn = 4.
  0123456
0 .t.....
1 .t.....
2 f......
3 .......
4 ...f...
5 .......
6 ......h
7 t......

Turn = 8.
  0123456
0 .t.....
1 .t.....
2 f......
3 .......
4 ...f...
5 .......
6 .......
7 t.....h

Turn = 12.
  0123456
0 .t.....
1 .t.....
2 f......
3 .......
4 ...f...
5 .......
6 .......
7 t.....h

Turn = 16.
  0123456
0 .t.....
1 .t.....
2 f......
3 .......
4 ...f...
5 .......
6 .......
7 t.....h

Turn = 20.
  0123456
0 .t.....
1 .t.....
2 f......
3 .......
4 ...f...
5 .......
6 .......
7 t.....h

*** Darwin 6x6 ***
Turn = 0.
  012345
0 ...f..
1 h.....
2 ..t...
3 ...tt.
4 ......
5 ...t..

Turn = 2.
  012345
0 ...f..
1 ......
2 ..t...
3 h..tt.
4 ......
5 ...t..

Turn = 4.
  012345
0 ...f..
1 ......
2 ..t...
3 ...tt.
4 ......
5 h..t..

Turn = 6.
  012345
0 ...f..
1 ......
2 ..t...
3 ...tt.
4 ......
5 h..t..

Turn = 8.
  012345
0 ...f..
1 ......
2 ..t...
3 ...tt.
4 ......
5 h..t..

Turn = 10.
  012345
0 ...f..
1 ......
2 ..t...
3 ...tt.
4 ......
5 h..t..

*** Darwin 8x6 ***
Turn = 0.
  012345
0 rh....
1 .f....
2 .hh...
3 ......
4 ....t.
5 ......
6 ......
7 ....f.

Turn = 4.
  012345
0 .rh...
1 rf....
2 h.....
3 ......
4 ....t.
5 ......
6 ......
7 ....f.

Turn = 8.
  012345
0 ..r..r
1 .f....
2 r.....
3 ......
4 ....t.
5 r.....
6 ......
7 ....f.

Turn = 12.
  012345
0 .....r
1 .f....
2 ......
3 .....r
4 ....t.
5 ......
6 r.....
7 .r..f.

Turn = 16.
  012345
0 ......
1 .f....
2 ......
3 .....r
4 ....tr
5 ......
6 ......
7 r..rr.

Turn = 20.
  012345
0 ......
1 .f....
2 ......
3 ...r.r
4 ......
5 ......
6 ....rr
7 ..rr..

*** Darwin 6x7 ***
Turn = 0.
  0123456
0 .......
1 ...f...
2 .rr....
3 ....tf.
4 r...h..
5 .......

Turn = 4.
  0123456
0 ..r....
1 ...f...
2 .......
3 r...tf.
4 ...rr..
5 .......

Turn = 8.
  0123456
0 .....rr
1 ...f...
2 .......
3 ......r
4 ......r
5 r...r..

Turn = 12.
  0123456
0 .......
1 ...f..r
2 .....rr
3 .......
4 .......
5 ...r.rr

Turn = 16.
  0123456
0 ....r..
1 ...fr..
2 .......
3 ......r
4 ......r
5 .....rr

Turn = 20.
  0123456
0 r.....r
1 .r....r
2 .......
3 ......r
4 ...r.r.
5 .......
