20

8 7
6
t 3 3 e
r 0 0 s
f 5 6 n
h 1 5 n
f 0 0 s
h 5 4 w
15 3

7 8
8
t 0 1 w
r 4 0 e
f 1 5 w
f 3 6 n
t 5 6 e
f 4 7 e
h 3 3 w
t 1 6 w
15 3

6 6
6
h 3 3 s
h 2 5 n
h 5 1 w
h 3 3 e
h 2 3 n
t 0 3 w
15 3

8 7
10
h 7 2 w
r 6 1 n
f 7 5 n
h 3 4 e
r 4 1 n
r 2 2 w
h 5 0 w
r 0 6 w
r 2 6 e
f 0 3 s
15 3

7 7
7
h 5 4 s
h 4 6 s
r 0 4 s
r 0 3 s
f 4 4 n
r 3 0 w
t 5 1 w
10 2

7 8
8
t 3 4 w
r 2 0 w
h 0 2 w
f 0 3 s
f 0 1 n
f 2 3 n
r 5 5 n
f 1 5 s
10 2

8 8
7
r 0 1 e
h 7 5 w
f 3 0 e
t 3 6 w
r 2 0 n
r 4 4 s
r 0 4 s
15 3

7 8
7
h 0 4 w
f 1 4 e
t 5 0 w
r 1 5 s
f 4 6 s
f 5 0 e
t 0 7 e
10 2

7 8
8
t 0 5 n
r 4 6 e
f 3 0 e
r 1 1 w
f 2 4 e
f 3 1 s
r 5 5 s
f 3 6 w
5 1

8 8
6
t 7 3 e
h 6 5 e
t 6 7 n
f 2 7 e
t 2 5 w
r 0 5 e
10 2

6 8
6
r 4 6 n
f 4 3 w
h 1 1 s
h 1 5 w
t 1 7 e
r 3 4 s
20 4

7 6
7
t 6 0 n
r 0 0 e
h 4 3 s
h 3 4 s
r 1 0 w
t 3 2 e
f 6 5 e
5 1

7 7
8
r 0 4 n
r 0 3 e
f 4 1 n
f 1 1 n
f 1 0 e
t 0 3 n
t 5 0 n
t 5 1 e
15 3

6 7
7
r 4 0 w
r 2 3 w
r 3 4 n
h 1 6 n
r 1 5 s
f 5 1 e
h 4 3 s
15 3

7 7
8
t 5 5 e
r 5 6 w
t 2 5 n
t 5 1 s
f 4 4 e
f 6 1 w
h 1 4 w
r 0 5 w
10 2

7 8
8
r 2 7 e
h 0 0 e
t 0 5 w
f 5 3 e
h 3 4 w
h 1 7 s
h 0 4 e
f 4 5 w
10 2

8 7
6
t 1 1 w
f 0 1 w
f 2 0 w
f 4 3 e
h 2 6 s
t 7 0 s
20 4

6 6
6
h 1 0 s
t 5 3 n
t 3 3 w
t 3 4 w
f 0 3 w
t 2 2 w
10 2

8 6
7
h 0 1 n
h 2 2 n
h 2 1 w
t 4 4 e
f 7 4 e
f 1 1 e
r 0 0 n
20 4

6 7
7
f 1 3 w
r 4 0 e
r 2 2 w
f 3 5 e
h 4 4 n
t 3 4 n
r 2 1 n
20 4
