20

8 8
9
f 4 6 w
f 3 6 w
f 7 1 e
r 7 7 n
t 2 7 n
h 4 7 w
r 5 1 e
t 1 6 s
r 1 2 w
12 6

13 15
5
t 12 14 e
f 0 4 n
f 3 6 s
h 7 3 n
r 1 7 n
12 12

13 11
5
t 6 2 s
t 1 8 s
h 9 3 s
r 3 10 w
r 0 0 e
11 9

6 10
4
h 4 5 w
h 4 2 n
f 4 3 w
h 2 4 e
4 2

7 13
11
r 1 4 w
f 2 4 w
r 5 7 w
t 1 2 n
f 2 9 n
f 3 8 s
h 2 6 w
t 4 10 s
r 1 6 w
t 6 2 w
h 0 9 n
14 10

13 12
5
r 10 2 w
r 7 0 e
h 3 5 s
h 8 5 w
h 8 5 w
7 4

11 8
5
f 4 0 w
r 8 2 w
t 5 3 e
f 10 6 n
t 0 7 s
7 6

8 11
4
f 1 0 n
t 6 6 s
t 6 2 n
r 3 10 e
13 11

5 13
3
r 4 2 e
f 3 4 s
r 4 6 e
3 3

9 11
3
r 6 5 s
r 4 2 w
r 4 1 s
5 1

5 13
8
h 2 6 n
h 0 11 e
f 4 4 s
h 4 8 n
t 4 0 e
t 3 3 e
h 4 5 e
r 1 0 w
5 3

7 14
12
r 3 13 e
r 3 3 n
r 4 9 w
f 1 13 n
t 2 1 w
t 3 8 n
h 2 11 s
t 3 3 e
r 6 2 w
r 6 7 w
r 0 0 w
r 3 11 e
1 1

15 13
6
r 9 2 n
f 10 2 s
r 8 0 n
h 2 0 n
h 6 12 e
t 8 11 n
3 3

8 12
6
t 3 4 w
r 4 6 w
t 2 4 e
h 6 9 n
t 2 3 e
f 6 1 n
4 3

5 5
8
t 1 4 s
h 2 2 w
r 4 3 s
h 0 0 w
r 2 2 n
f 1 3 e
t 0 3 s
h 0 2 n
9 2

12 8
12
r 9 7 n
f 5 5 e
h 11 7 w
f 7 0 n
t 5 2 n
r 1 3 e
f 2 1 n
r 11 5 e
f 0 7 e
r 2 6 n
t 3 0 w
r 4 4 e
4 3

13 7
12
r 9 0 s
r 11 6 e
h 5 1 e
h 7 6 s
t 12 3 s
f 10 3 n
f 8 5 s
h 4 5 n
h 8 4 s
h 3 4 n
r 0 3 n
h 9 5 n
11 8

13 13
8
t 2 6 s
f 1 8 s
f 6 3 e
f 12 9 s
r 11 9 n
r 7 10 e
t 3 5 w
t 7 1 n
4 4

11 13
4
t 4 12 w
t 2 2 e
f 3 5 n
h 7 9 e
1 1

12 7
8
h 9 0 e
r 6 3 w
h 9 2 w
f 11 0 w
r 2 2 w
r 3 2 e
t 6 1 w
t 8 1 s
12 5
