25

3 8
5
t 0 3 s
t 1 3 w
f 2 7 s
t 2 1 s
h 1 5 e
19 88

7 8
7
r 0 3 w
h 1 7 s
f 2 7 w
r 5 6 w
f 5 7 n
f 2 0 w
f 4 6 e
61 19

8 10
4
r 0 7 n
f 5 9 w
f 0 3 s
h 2 8 n
31 25

12 3
7
h 5 1 e
t 1 1 w
h 7 1 s
h 7 2 s
r 4 1 e
f 2 1 w
f 9 0 n
78 79

3 5
5
t 0 0 s
f 2 3 s
r 2 1 e
f 2 2 w
h 2 0 e
91 22

4 13
4
t 3 12 n
t 1 8 e
h 0 12 w
t 0 12 s
58 34

4 5
4
t 1 0 e
r 3 2 e
r 0 3 n
r 2 1 n
80 41

8 10
5
f 1 4 s
t 2 4 n
t 2 7 w
h 4 2 e
f 2 9 w
91 40

3 13
6
h 1 5 w
f 2 4 s
h 0 5 w
f 0 4 s
h 1 11 s
t 2 4 n
42 70

13 8
5
h 4 3 s
r 7 0 s
t 4 1 s
f 11 3 e
r 5 3 n
76 34

4 12
3
t 2 9 w
f 0 0 e
f 1 8 s
76 68

3 11
5
t 2 10 w
r 2 4 n
f 2 4 w
f 2 2 w
t 1 5 s
23 93

15 10
5
r 11 8 s
h 2 9 n
r 6 3 e
f 3 4 w
f 2 4 n
84 50

10 3
7
h 3 1 n
r 4 2 w
h 8 1 s
t 6 2 s
t 2 1 e
f 0 1 w
r 8 0 n
56 47

12 11
4
r 10 6 w
h 6 7 n
h 10 9 w
h 0 10 s
10 99

7 15
5
h 3 12 n
t 2 1 e
r 4 3 s
r 5 7 e
f 1 12 e
13 13

5 8
5
h 2 3 e
f 0 2 w
f 0 5 n
h 2 2 e
t 1 7 n
31 21

14 14
5
f 4 8 s
t 2 4 e
r 8 5 w
f 5 2 e
f 0 5 n
98 53

4 6
5
t 0 2 s
r 1 2 w
t 1 1 n
t 2 4 s
f 0 1 n
10 1

15 13
3
r 9 11 e
r 5 10 e
r 12 7 n
26 21

6 13
5
t 3 7 s
f 1 8 e
h 4 12 w
t 2 5 e
r 2 7 e
53 79

6 10
3
h 4 5 w
r 1 5 n
r 0 8 n
26 40

11 7
4
t 8 0 n
t 9 5 s
h 6 2 s
t 4 0 w
76 40

15 4
5
h 11 1 s
f 8 3 s
h 4 2 n
t 4 0 s
r 12 0 e
2 54

8 5
5
t 5 2 e
t 5 2 e
h 7 1 e
t 2 0 n
h 7 0 n
98 21
